{
  "count": 51,
  "next": "https://api.rawg.io/api/platforms?key=5189cd174fae4831a0ed8809c9fb6cdc&page=2&page_size=10",
  "previous": null,
  "results": [
    {
      "id": 4,
      "name": "PC",
      "slug": "pc",
      "games_count": 513999,
      "image_background": "https://media.rawg.io/media/games/46d/46d98e6910fbc0706e2948a7cc9b10c5.jpg",
      "image": null,
      "year_start": null,
      "year_end": null,
      "games": [
        {
          "id": 3498,
          "slug": "grand-theft-auto-v",
          "name": "Grand Theft Auto V",
          "added": 18429
        },
        {
          "id": 3328,
          "slug": "the-witcher-3-wild-hunt",
          "name": "The Witcher 3: Wild Hunt",
          "added": 17426
        },
        {
          "id": 4200,
          "slug": "portal-2",
          "name": "Portal 2",
          "added": 16390
        },
        {
          "id": 5286,
          "slug": "tomb-raider",
          "name": "Tomb Raider (2013)",
          "added": 14389
        },
        {
          "id": 4291,
          "slug": "counter-strike-global-offensive",
          "name": "Counter-Strike: Global Offensive",
          "added": 14061
        },
        {
          "id": 5679,
          "slug": "the-elder-scrolls-v-skyrim",
          "name": "The Elder Scrolls V: Skyrim",
          "added": 13946
        }
      ]
    },
    {
      "id": 187,
      "name": "PlayStation 5",
      "slug": "playstation5",
      "games_count": 768,
      "image_background": "https://media.rawg.io/media/games/f24/f2493ea338fe7bd3c7d73750a85a0959.jpeg",
      "image": null,
      "year_start": 2020,
      "year_end": null,
      "games": [
        {
          "id": 3498,
          "slug": "grand-theft-auto-v",
          "name": "Grand Theft Auto V",
          "added": 18429
        },
        {
          "id": 3328,
          "slug": "the-witcher-3-wild-hunt",
          "name": "The Witcher 3: Wild Hunt",
          "added": 17426
        },
        {
          "id": 32,
          "slug": "destiny-2",
          "name": "Destiny 2",
          "added": 11450
        },
        {
          "id": 41494,
          "slug": "cyberpunk-2077",
          "name": "Cyberpunk 2077",
          "added": 10418
        },
        {
          "id": 766,
          "slug": "warframe",
          "name": "Warframe",
          "added": 10321
        },
        {
          "id": 58134,
          "slug": "marvels-spider-man",
          "name": "Marvel's Spider-Man",
          "added": 8803
        }
      ]
    },
    {
      "id": 18,
      "name": "PlayStation 4",
      "slug": "playstation4",
      "games_count": 6543,
      "image_background": "https://media.rawg.io/media/games/157/15742f2f67eacff546738e1ab5c19d20.jpg",
      "image": null,
      "year_start": null,
      "year_end": null,
      "games": [
        {
          "id": 3498,
          "slug": "grand-theft-auto-v",
          "name": "Grand Theft Auto V",
          "added": 18429
        },
        {
          "id": 3328,
          "slug": "the-witcher-3-wild-hunt",
          "name": "The Witcher 3: Wild Hunt",
          "added": 17426
        },
        {
          "id": 5286,
          "slug": "tomb-raider",
          "name": "Tomb Raider (2013)",
          "added": 14389
        },
        {
          "id": 4062,
          "slug": "bioshock-infinite",
          "name": "BioShock Infinite",
          "added": 13423
        },
        {
          "id": 3439,
          "slug": "life-is-strange-episode-1-2",
          "name": "Life is Strange",
          "added": 13217
        },
        {
          "id": 28,
          "slug": "red-dead-redemption-2",
          "name": "Red Dead Redemption 2",
          "added": 13213
        }
      ]
    },
    {
      "id": 1,
      "name": "Xbox One",
      "slug": "xbox-one",
      "games_count": 5460,
      "image_background": "https://media.rawg.io/media/games/8d6/8d69eb6c32ed6acfd75f82d532144993.jpg",
      "image": null,
      "year_start": null,
      "year_end": null,
      "games": [
        {
          "id": 3498,
          "slug": "grand-theft-auto-v",
          "name": "Grand Theft Auto V",
          "added": 18429
        },
        {
          "id": 3328,
          "slug": "the-witcher-3-wild-hunt",
          "name": "The Witcher 3: Wild Hunt",
          "added": 17426
        },
        {
          "id": 4200,
          "slug": "portal-2",
          "name": "Portal 2",
          "added": 16390
        },
        {
          "id": 5286,
          "slug": "tomb-raider",
          "name": "Tomb Raider (2013)",
          "added": 14389
        },
        {
          "id": 4062,
          "slug": "bioshock-infinite",
          "name": "BioShock Infinite",
          "added": 13423
        },
        {
          "id": 3439,
          "slug": "life-is-strange-episode-1-2",
          "name": "Life is Strange",
          "added": 13217
        }
      ]
    },
    {
      "id": 186,
      "name": "Xbox Series S/X",
      "slug": "xbox-series-x",
      "games_count": 691,
      "image_background": "https://media.rawg.io/media/games/eb5/eb514db62d397c64288160d5bd8fd67a.jpg",
      "image": null,
      "year_start": 2020,
      "year_end": null,
      "games": [
        {
          "id": 3498,
          "slug": "grand-theft-auto-v",
          "name": "Grand Theft Auto V",
          "added": 18429
        },
        {
          "id": 3328,
          "slug": "the-witcher-3-wild-hunt",
          "name": "The Witcher 3: Wild Hunt",
          "added": 17426
        },
        {
          "id": 32,
          "slug": "destiny-2",
          "name": "Destiny 2",
          "added": 11450
        },
        {
          "id": 41494,
          "slug": "cyberpunk-2077",
          "name": "Cyberpunk 2077",
          "added": 10418
        },
        {
          "id": 766,
          "slug": "warframe",
          "name": "Warframe",
          "added": 10321
        },
        {
          "id": 58812,
          "slug": "control",
          "name": "Control",
          "added": 7808
        }
      ]
    },
    {
      "id": 7,
      "name": "Nintendo Switch",
      "slug": "nintendo-switch",
      "games_count": 5125,
      "image_background": "https://media.rawg.io/media/games/9dd/9ddabb34840ea9227556670606cf8ea3.jpg",
      "image": null,
      "year_start": null,
      "year_end": null,
      "games": [
        {
          "id": 3328,
          "slug": "the-witcher-3-wild-hunt",
          "name": "The Witcher 3: Wild Hunt",
          "added": 17426
        },
        {
          "id": 5679,
          "slug": "the-elder-scrolls-v-skyrim",
          "name": "The Elder Scrolls V: Skyrim",
          "added": 13946
        },
        {
          "id": 13536,
          "slug": "portal",
          "name": "Portal",
          "added": 13917
        },
        {
          "id": 4062,
          "slug": "bioshock-infinite",
          "name": "BioShock Infinite",
          "added": 13423
        },
        {
          "id": 4286,
          "slug": "bioshock",
          "name": "BioShock",
          "added": 12221
        },
        {
          "id": 1030,
          "slug": "limbo",
          "name": "Limbo",
          "added": 11872
        }
      ]
    },
    {
      "id": 3,
      "name": "iOS",
      "slug": "ios",
      "games_count": 76114,
      "image_background": "https://media.rawg.io/media/games/4cb/4cb855e8ef1578415a928e53c9f51867.png",
      "image": null,
      "year_start": null,
      "year_end": null,
      "games": [
        {
          "id": 3439,
          "slug": "life-is-strange-episode-1-2",
          "name": "Life is Strange",
          "added": 13217
        },
        {
          "id": 4286,
          "slug": "bioshock",
          "name": "BioShock",
          "added": 12221
        },
        {
          "id": 1030,
          "slug": "limbo",
          "name": "Limbo",
          "added": 11872
        },
        {
          "id": 422,
          "slug": "terraria",
          "name": "Terraria",
          "added": 10416
        },
        {
          "id": 23027,
          "slug": "the-walking-dead",
          "name": "The Walking Dead: Season 1",
          "added": 9955
        },
        {
          "id": 416,
          "slug": "grand-theft-auto-san-andreas",
          "name": "Grand Theft Auto: San Andreas",
          "added": 9671
        }
      ]
    },
    {
      "id": 21,
      "name": "Android",
      "slug": "android",
      "games_count": 53292,
      "image_background": "https://media.rawg.io/media/games/530/5302dd22a190e664531236ca724e8726.jpg",
      "image": null,
      "year_start": null,
      "year_end": null,
      "games": [
        {
          "id": 13536,
          "slug": "portal",
          "name": "Portal",
          "added": 13917
        },
        {
          "id": 802,
          "slug": "borderlands-2",
          "name": "Borderlands 2",
          "added": 13236
        },
        {
          "id": 3439,
          "slug": "life-is-strange-episode-1-2",
          "name": "Life is Strange",
          "added": 13217
        },
        {
          "id": 13537,
          "slug": "half-life-2",
          "name": "Half-Life 2",
          "added": 12502
        },
        {
          "id": 1030,
          "slug": "limbo",
          "name": "Limbo",
          "added": 11872
        },
        {
          "id": 422,
          "slug": "terraria",
          "name": "Terraria",
          "added": 10416
        }
      ]
    },
    {
      "id": 8,
      "name": "Nintendo 3DS",
      "slug": "nintendo-3ds",
      "games_count": 1745,
      "image_background": "https://media.rawg.io/media/games/89a/89a700d3c6a76bd0610ca89ccd20da54.jpg",
      "image": null,
      "year_start": null,
      "year_end": null,
      "games": [
        {
          "id": 422,
          "slug": "terraria",
          "name": "Terraria",
          "added": 10416
        },
        {
          "id": 22509,
          "slug": "minecraft",
          "name": "Minecraft",
          "added": 6922
        },
        {
          "id": 2597,
          "slug": "lego-lord-of-the-rings",
          "name": "LEGO The Lord of the Rings",
          "added": 4737
        },
        {
          "id": 250,
          "slug": "the-binding-of-isaac-rebirth",
          "name": "The Binding of Isaac: Rebirth",
          "added": 4655
        },
        {
          "id": 3729,
          "slug": "lego-the-hobbit",
          "name": "LEGO The Hobbit",
          "added": 4334
        },
        {
          "id": 4012,
          "slug": "resident-evil-revelations-biohazard-revelations",
          "name": "Resident Evil Revelations",
          "added": 3636
        }
      ]
    },
    {
      "id": 9,
      "name": "Nintendo DS",
      "slug": "nintendo-ds",
      "games_count": 2458,
      "image_background": "https://media.rawg.io/media/games/9f7/9f750cb69a31a42648f45e3681abed3a.jpg",
      "image": null,
      "year_start": null,
      "year_end": null,
      "games": [
        {
          "id": 865,
          "slug": "call-of-duty-black-ops",
          "name": "Call of Duty: Black Ops",
          "added": 5942
        },
        {
          "id": 3486,
          "slug": "syberia",
          "name": "Syberia",
          "added": 5553
        },
        {
          "id": 5578,
          "slug": "grid",
          "name": "Race Driver: Grid",
          "added": 4778
        },
        {
          "id": 2597,
          "slug": "lego-lord-of-the-rings",
          "name": "LEGO The Lord of the Rings",
          "added": 4737
        },
        {
          "id": 4869,
          "slug": "tomb-raider-underworld",
          "name": "Tomb Raider: Underworld",
          "added": 3955
        },
        {
          "id": 5528,
          "slug": "call-of-duty-world-at-war",
          "name": "Call of Duty: World at War",
          "added": 3910
        }
      ]
    }
  ]
}